^C:\USERS\SIMON\DOCUMENTS\3DIMVIEWERVS2013\APPLICATIONS\3DIMVIEWER\CMAKELISTS.TXT
C:\USERS\SIMON\DOCUMENTS\3DIMVIEWERVS2013\BUILD\3DIMVIEWER\CMAKEFILES\GENERATE.STAMP
^C:\USERS\SIMON\DOCUMENTS\3DIMVIEWERVS2013\BUILD\CMAKEFILES\11ABF6963242E3281404F50A5F9DE4DA\MOC_APPCONFIGURE.CPP.RULE
C:\USERS\SIMON\DOCUMENTS\3DIMVIEWERVS2013\BUILD\3DIMVIEWER\INCLUDE\MOC_APPCONFIGURE.CPP
^C:\USERS\SIMON\DOCUMENTS\3DIMVIEWERVS2013\BUILD\CMAKEFILES\11ABF6963242E3281404F50A5F9DE4DA\MOC_APPVERSION.CPP.RULE
C:\USERS\SIMON\DOCUMENTS\3DIMVIEWERVS2013\BUILD\3DIMVIEWER\INCLUDE\MOC_APPVERSION.CPP
^C:\USERS\SIMON\DOCUMENTS\3DIMVIEWERVS2013\BUILD\CMAKEFILES\11ABF6963242E3281404F50A5F9DE4DA\MOC_C3DIMAPPLICATION.CPP.RULE
C:\USERS\SIMON\DOCUMENTS\3DIMVIEWERVS2013\BUILD\3DIMVIEWER\INCLUDE\MOC_C3DIMAPPLICATION.CPP
^C:\USERS\SIMON\DOCUMENTS\3DIMVIEWERVS2013\BUILD\CMAKEFILES\11ABF6963242E3281404F50A5F9DE4DA\MOC_CCUSTOMUI.CPP.RULE
C:\USERS\SIMON\DOCUMENTS\3DIMVIEWERVS2013\BUILD\3DIMVIEWER\INCLUDE\MOC_CCUSTOMUI.CPP
^C:\USERS\SIMON\DOCUMENTS\3DIMVIEWERVS2013\BUILD\CMAKEFILES\11ABF6963242E3281404F50A5F9DE4DA\MOC_CDATAINFODIALOG.CPP.RULE
C:\USERS\SIMON\DOCUMENTS\3DIMVIEWERVS2013\BUILD\3DIMVIEWER\INCLUDE\MOC_CDATAINFODIALOG.CPP
^C:\USERS\SIMON\DOCUMENTS\3DIMVIEWERVS2013\BUILD\CMAKEFILES\11ABF6963242E3281404F50A5F9DE4DA\MOC_CFILTERDIALOG.CPP.RULE
C:\USERS\SIMON\DOCUMENTS\3DIMVIEWERVS2013\BUILD\3DIMVIEWER\INCLUDE\MOC_CFILTERDIALOG.CPP
^C:\USERS\SIMON\DOCUMENTS\3DIMVIEWERVS2013\BUILD\CMAKEFILES\11ABF6963242E3281404F50A5F9DE4DA\MOC_CMODELVISUALIZER.CPP.RULE
C:\USERS\SIMON\DOCUMENTS\3DIMVIEWERVS2013\BUILD\3DIMVIEWER\INCLUDE\MOC_CMODELVISUALIZER.CPP
^C:\USERS\SIMON\DOCUMENTS\3DIMVIEWERVS2013\BUILD\CMAKEFILES\11ABF6963242E3281404F50A5F9DE4DA\MOC_CSYSINFO.CPP.RULE
C:\USERS\SIMON\DOCUMENTS\3DIMVIEWERVS2013\BUILD\3DIMVIEWER\INCLUDE\MOC_CSYSINFO.CPP
^C:\USERS\SIMON\DOCUMENTS\3DIMVIEWERVS2013\BUILD\CMAKEFILES\11ABF6963242E3281404F50A5F9DE4DA\MOC_SIGNALS.CPP.RULE
C:\USERS\SIMON\DOCUMENTS\3DIMVIEWERVS2013\BUILD\3DIMVIEWER\INCLUDE\MOC_SIGNALS.CPP
^C:\USERS\SIMON\DOCUMENTS\3DIMVIEWERVS2013\BUILD\CMAKEFILES\11ABF6963242E3281404F50A5F9DE4DA\MOC_CPREFERENCESDIALOG.CPP.RULE
C:\USERS\SIMON\DOCUMENTS\3DIMVIEWERVS2013\BUILD\3DIMVIEWER\INCLUDE\MOC_CPREFERENCESDIALOG.CPP
^C:\USERS\SIMON\DOCUMENTS\3DIMVIEWERVS2013\BUILD\CMAKEFILES\11ABF6963242E3281404F50A5F9DE4DA\MOC_CSERIESSELECTIONDIALOG.CPP.RULE
C:\USERS\SIMON\DOCUMENTS\3DIMVIEWERVS2013\BUILD\3DIMVIEWER\INCLUDE\MOC_CSERIESSELECTIONDIALOG.CPP
^C:\USERS\SIMON\DOCUMENTS\3DIMVIEWERVS2013\BUILD\CMAKEFILES\11ABF6963242E3281404F50A5F9DE4DA\MOC_CVOLUMELIMITERDIALOG.CPP.RULE
C:\USERS\SIMON\DOCUMENTS\3DIMVIEWERVS2013\BUILD\3DIMVIEWER\INCLUDE\MOC_CVOLUMELIMITERDIALOG.CPP
^C:\USERS\SIMON\DOCUMENTS\3DIMVIEWERVS2013\BUILD\CMAKEFILES\11ABF6963242E3281404F50A5F9DE4DA\MOC_CVOLUMERENDERERWINDOW.CPP.RULE
C:\USERS\SIMON\DOCUMENTS\3DIMVIEWERVS2013\BUILD\3DIMVIEWER\INCLUDE\MOC_CVOLUMERENDERERWINDOW.CPP
^C:\USERS\SIMON\DOCUMENTS\3DIMVIEWERVS2013\BUILD\CMAKEFILES\11ABF6963242E3281404F50A5F9DE4DA\MOC_DENSITYWINDOWWIDGET.CPP.RULE
C:\USERS\SIMON\DOCUMENTS\3DIMVIEWERVS2013\BUILD\3DIMVIEWER\INCLUDE\MOC_DENSITYWINDOWWIDGET.CPP
^C:\USERS\SIMON\DOCUMENTS\3DIMVIEWERVS2013\BUILD\CMAKEFILES\11ABF6963242E3281404F50A5F9DE4DA\MOC_MAINWINDOW.CPP.RULE
C:\USERS\SIMON\DOCUMENTS\3DIMVIEWERVS2013\BUILD\3DIMVIEWER\INCLUDE\MOC_MAINWINDOW.CPP
^C:\USERS\SIMON\DOCUMENTS\3DIMVIEWERVS2013\BUILD\CMAKEFILES\11ABF6963242E3281404F50A5F9DE4DA\MOC_MODELSWIDGET.CPP.RULE
C:\USERS\SIMON\DOCUMENTS\3DIMVIEWERVS2013\BUILD\3DIMVIEWER\INCLUDE\MOC_MODELSWIDGET.CPP
^C:\USERS\SIMON\DOCUMENTS\3DIMVIEWERVS2013\BUILD\CMAKEFILES\11ABF6963242E3281404F50A5F9DE4DA\MOC_ORTHOSLICESWIDGET.CPP.RULE
C:\USERS\SIMON\DOCUMENTS\3DIMVIEWERVS2013\BUILD\3DIMVIEWER\INCLUDE\MOC_ORTHOSLICESWIDGET.CPP
^C:\USERS\SIMON\DOCUMENTS\3DIMVIEWERVS2013\BUILD\CMAKEFILES\11ABF6963242E3281404F50A5F9DE4DA\MOC_QTCOMPAT.CPP.RULE
C:\USERS\SIMON\DOCUMENTS\3DIMVIEWERVS2013\BUILD\3DIMVIEWER\INCLUDE\MOC_QTCOMPAT.CPP
^C:\USERS\SIMON\DOCUMENTS\3DIMVIEWERVS2013\BUILD\CMAKEFILES\11ABF6963242E3281404F50A5F9DE4DA\MOC_SEGMENTATIONWIDGET.CPP.RULE
C:\USERS\SIMON\DOCUMENTS\3DIMVIEWERVS2013\BUILD\3DIMVIEWER\INCLUDE\MOC_SEGMENTATIONWIDGET.CPP
^C:\USERS\SIMON\DOCUMENTS\3DIMVIEWERVS2013\BUILD\CMAKEFILES\11ABF6963242E3281404F50A5F9DE4DA\MOC_VOLUMERENDERINGWIDGET.CPP.RULE
C:\USERS\SIMON\DOCUMENTS\3DIMVIEWERVS2013\BUILD\3DIMVIEWER\INCLUDE\MOC_VOLUMERENDERINGWIDGET.CPP
^C:\USERS\SIMON\DOCUMENTS\3DIMVIEWERVS2013\BUILD\CMAKEFILES\78CA5E8F2B5EE40837138BCE7537A319\MOC_CRYPT.CPP.RULE
C:\USERS\SIMON\DOCUMENTS\3DIMVIEWERVS2013\BUILD\3DIMVIEWER\INCLUDE\ZIP\MOC_CRYPT.CPP
^C:\USERS\SIMON\DOCUMENTS\3DIMVIEWERVS2013\BUILD\CMAKEFILES\78CA5E8F2B5EE40837138BCE7537A319\MOC_IOAPI.CPP.RULE
C:\USERS\SIMON\DOCUMENTS\3DIMVIEWERVS2013\BUILD\3DIMVIEWER\INCLUDE\ZIP\MOC_IOAPI.CPP
^C:\USERS\SIMON\DOCUMENTS\3DIMVIEWERVS2013\BUILD\CMAKEFILES\78CA5E8F2B5EE40837138BCE7537A319\MOC_IOWIN32.CPP.RULE
C:\USERS\SIMON\DOCUMENTS\3DIMVIEWERVS2013\BUILD\3DIMVIEWER\INCLUDE\ZIP\MOC_IOWIN32.CPP
^C:\USERS\SIMON\DOCUMENTS\3DIMVIEWERVS2013\BUILD\CMAKEFILES\78CA5E8F2B5EE40837138BCE7537A319\MOC_MZTOOLS.CPP.RULE
C:\USERS\SIMON\DOCUMENTS\3DIMVIEWERVS2013\BUILD\3DIMVIEWER\INCLUDE\ZIP\MOC_MZTOOLS.CPP
^C:\USERS\SIMON\DOCUMENTS\3DIMVIEWERVS2013\BUILD\CMAKEFILES\78CA5E8F2B5EE40837138BCE7537A319\MOC_UNZIP.CPP.RULE
C:\USERS\SIMON\DOCUMENTS\3DIMVIEWERVS2013\BUILD\3DIMVIEWER\INCLUDE\ZIP\MOC_UNZIP.CPP
^C:\USERS\SIMON\DOCUMENTS\3DIMVIEWERVS2013\BUILD\CMAKEFILES\78CA5E8F2B5EE40837138BCE7537A319\MOC_ZIP.CPP.RULE
C:\USERS\SIMON\DOCUMENTS\3DIMVIEWERVS2013\BUILD\3DIMVIEWER\INCLUDE\ZIP\MOC_ZIP.CPP
^C:\USERS\SIMON\DOCUMENTS\3DIMVIEWERVS2013\BUILD\CMAKEFILES\88545A91584B54B64763D7B8C915E4C1\MOC_CPLUGININFO.CPP.RULE
C:\USERS\SIMON\DOCUMENTS\3DIMVIEWERVS2013\BUILD\3DIMVIEWER\__\__\INCLUDE\3DIM\QTPLUGIN\MOC_CPLUGININFO.CPP
^C:\USERS\SIMON\DOCUMENTS\3DIMVIEWERVS2013\BUILD\CMAKEFILES\88545A91584B54B64763D7B8C915E4C1\MOC_CPLUGININFODIALOG.CPP.RULE
C:\USERS\SIMON\DOCUMENTS\3DIMVIEWERVS2013\BUILD\3DIMVIEWER\__\__\INCLUDE\3DIM\QTPLUGIN\MOC_CPLUGININFODIALOG.CPP
^C:\USERS\SIMON\DOCUMENTS\3DIMVIEWERVS2013\BUILD\CMAKEFILES\88545A91584B54B64763D7B8C915E4C1\MOC_CPLUGINMANAGER.CPP.RULE
C:\USERS\SIMON\DOCUMENTS\3DIMVIEWERVS2013\BUILD\3DIMVIEWER\__\__\INCLUDE\3DIM\QTPLUGIN\MOC_CPLUGINMANAGER.CPP
^C:\USERS\SIMON\DOCUMENTS\3DIMVIEWERVS2013\BUILD\CMAKEFILES\88545A91584B54B64763D7B8C915E4C1\MOC_PLUGINHOST.CPP.RULE
C:\USERS\SIMON\DOCUMENTS\3DIMVIEWERVS2013\BUILD\3DIMVIEWER\__\__\INCLUDE\3DIM\QTPLUGIN\MOC_PLUGINHOST.CPP
^C:\USERS\SIMON\DOCUMENTS\3DIMVIEWERVS2013\BUILD\CMAKEFILES\88545A91584B54B64763D7B8C915E4C1\MOC_PLUGININTERFACE.CPP.RULE
C:\USERS\SIMON\DOCUMENTS\3DIMVIEWERVS2013\BUILD\3DIMVIEWER\__\__\INCLUDE\3DIM\QTPLUGIN\MOC_PLUGININTERFACE.CPP
^C:\USERS\SIMON\DOCUMENTS\3DIMVIEWERVS2013\APPLICATIONS\3DIMVIEWER\UI\CDATAINFODIALOG.UI
C:\USERS\SIMON\DOCUMENTS\3DIMVIEWERVS2013\BUILD\3DIMVIEWER\UI_CDATAINFODIALOG.H
^C:\USERS\SIMON\DOCUMENTS\3DIMVIEWERVS2013\APPLICATIONS\3DIMVIEWER\UI\CFILTERDIALOG.UI
C:\USERS\SIMON\DOCUMENTS\3DIMVIEWERVS2013\BUILD\3DIMVIEWER\UI_CFILTERDIALOG.H
^C:\USERS\SIMON\DOCUMENTS\3DIMVIEWERVS2013\APPLICATIONS\3DIMVIEWER\UI\CPREFERENCESDIALOG.UI
C:\USERS\SIMON\DOCUMENTS\3DIMVIEWERVS2013\BUILD\3DIMVIEWER\UI_CPREFERENCESDIALOG.H
^C:\USERS\SIMON\DOCUMENTS\3DIMVIEWERVS2013\APPLICATIONS\3DIMVIEWER\UI\CSERIESSELECTIONDIALOG.UI
C:\USERS\SIMON\DOCUMENTS\3DIMVIEWERVS2013\BUILD\3DIMVIEWER\UI_CSERIESSELECTIONDIALOG.H
^C:\USERS\SIMON\DOCUMENTS\3DIMVIEWERVS2013\APPLICATIONS\3DIMVIEWER\UI\CVOLUMELIMITERDIALOG.UI
C:\USERS\SIMON\DOCUMENTS\3DIMVIEWERVS2013\BUILD\3DIMVIEWER\UI_CVOLUMELIMITERDIALOG.H
^C:\USERS\SIMON\DOCUMENTS\3DIMVIEWERVS2013\APPLICATIONS\3DIMVIEWER\UI\DENSITYWINDOWWIDGET.UI
C:\USERS\SIMON\DOCUMENTS\3DIMVIEWERVS2013\BUILD\3DIMVIEWER\UI_DENSITYWINDOWWIDGET.H
^C:\USERS\SIMON\DOCUMENTS\3DIMVIEWERVS2013\APPLICATIONS\3DIMVIEWER\UI\MAINWINDOW.UI
C:\USERS\SIMON\DOCUMENTS\3DIMVIEWERVS2013\BUILD\3DIMVIEWER\UI_MAINWINDOW.H
^C:\USERS\SIMON\DOCUMENTS\3DIMVIEWERVS2013\APPLICATIONS\3DIMVIEWER\UI\MODELSWIDGET.UI
C:\USERS\SIMON\DOCUMENTS\3DIMVIEWERVS2013\BUILD\3DIMVIEWER\UI_MODELSWIDGET.H
^C:\USERS\SIMON\DOCUMENTS\3DIMVIEWERVS2013\APPLICATIONS\3DIMVIEWER\UI\ORTHOSLICESWIDGET.UI
C:\USERS\SIMON\DOCUMENTS\3DIMVIEWERVS2013\BUILD\3DIMVIEWER\UI_ORTHOSLICESWIDGET.H
^C:\USERS\SIMON\DOCUMENTS\3DIMVIEWERVS2013\APPLICATIONS\3DIMVIEWER\UI\SEGMENTATIONWIDGET.UI
C:\USERS\SIMON\DOCUMENTS\3DIMVIEWERVS2013\BUILD\3DIMVIEWER\UI_SEGMENTATIONWIDGET.H
^C:\USERS\SIMON\DOCUMENTS\3DIMVIEWERVS2013\APPLICATIONS\3DIMVIEWER\UI\VOLUMERENDERINGWIDGET.UI
C:\USERS\SIMON\DOCUMENTS\3DIMVIEWERVS2013\BUILD\3DIMVIEWER\UI_VOLUMERENDERINGWIDGET.H
^C:\USERS\SIMON\DOCUMENTS\3DIMVIEWERVS2013\APPLICATIONS\3DIMVIEWER\RESOURCES.QRC
C:\USERS\SIMON\DOCUMENTS\3DIMVIEWERVS2013\BUILD\3DIMVIEWER\QRC_RESOURCES.CPP
^C:\USERS\SIMON\DOCUMENTS\3DIMVIEWERVS2013\BUILD\CMAKEFILES\79143C49E46319EC30BF868A6C08BD83\CS_CZ.QM.RULE
C:\USERS\SIMON\DOCUMENTS\3DIMVIEWERVS2013\BUILD\3DIMVIEWER\CS_CZ.QM
