^C:\USERS\SIMON\DOCUMENTS\3DIMVIEWERVS2013\APPLICATIONS\3DIMVIEWER\CMAKELISTS.TXT
C:\QT\5.5\MSVC2013_64\LIB\CMAKE\QT5CORE\QT5CORECONFIGVERSION.CMAKE
C:\QT\5.5\MSVC2013_64\LIB\CMAKE\QT5CORE\QT5CORECONFIG.CMAKE
C:\QT\5.5\MSVC2013_64\LIB\CMAKE\QT5CORE\QT5CORECONFIGEXTRAS.CMAKE
C:\QT\5.5\MSVC2013_64\LIB\CMAKE\QT5CORE\QT5CORECONFIGEXTRASMKSPECDIR.CMAKE
C:\QT\5.5\MSVC2013_64\LIB\CMAKE\QT5CORE\QT5COREMACROS.CMAKE
C:\PROGRAM FILES\CMAKE\SHARE\CMAKE-3.7\MODULES\CMAKEPARSEARGUMENTS.CMAKE
C:\QT\5.5\MSVC2013_64\LIB\CMAKE\QT5GUI\QT5GUICONFIGVERSION.CMAKE
C:\QT\5.5\MSVC2013_64\LIB\CMAKE\QT5GUI\QT5GUICONFIG.CMAKE
C:\QT\5.5\MSVC2013_64\LIB\CMAKE\QT5GUI\QT5GUI_QDDSPLUGIN.CMAKE
C:\QT\5.5\MSVC2013_64\LIB\CMAKE\QT5GUI\QT5GUI_QGIFPLUGIN.CMAKE
C:\QT\5.5\MSVC2013_64\LIB\CMAKE\QT5GUI\QT5GUI_QICNSPLUGIN.CMAKE
C:\QT\5.5\MSVC2013_64\LIB\CMAKE\QT5GUI\QT5GUI_QICOPLUGIN.CMAKE
C:\QT\5.5\MSVC2013_64\LIB\CMAKE\QT5GUI\QT5GUI_QJP2PLUGIN.CMAKE
C:\QT\5.5\MSVC2013_64\LIB\CMAKE\QT5GUI\QT5GUI_QJPEGPLUGIN.CMAKE
C:\QT\5.5\MSVC2013_64\LIB\CMAKE\QT5GUI\QT5GUI_QMINIMALINTEGRATIONPLUGIN.CMAKE
C:\QT\5.5\MSVC2013_64\LIB\CMAKE\QT5GUI\QT5GUI_QMNGPLUGIN.CMAKE
C:\QT\5.5\MSVC2013_64\LIB\CMAKE\QT5GUI\QT5GUI_QOFFSCREENINTEGRATIONPLUGIN.CMAKE
C:\QT\5.5\MSVC2013_64\LIB\CMAKE\QT5GUI\QT5GUI_QTGAPLUGIN.CMAKE
C:\QT\5.5\MSVC2013_64\LIB\CMAKE\QT5GUI\QT5GUI_QTIFFPLUGIN.CMAKE
C:\QT\5.5\MSVC2013_64\LIB\CMAKE\QT5GUI\QT5GUI_QTUIOTOUCHPLUGIN.CMAKE
C:\QT\5.5\MSVC2013_64\LIB\CMAKE\QT5GUI\QT5GUI_QWBMPPLUGIN.CMAKE
C:\QT\5.5\MSVC2013_64\LIB\CMAKE\QT5GUI\QT5GUI_QWEBPPLUGIN.CMAKE
C:\QT\5.5\MSVC2013_64\LIB\CMAKE\QT5GUI\QT5GUI_QWINDOWSINTEGRATIONPLUGIN.CMAKE
C:\QT\5.5\MSVC2013_64\LIB\CMAKE\QT5GUI\QT5GUICONFIGEXTRAS.CMAKE
C:\QT\5.5\MSVC2013_64\LIB\CMAKE\QT5NETWORK\QT5NETWORKCONFIGVERSION.CMAKE
C:\QT\5.5\MSVC2013_64\LIB\CMAKE\QT5NETWORK\QT5NETWORKCONFIG.CMAKE
C:\QT\5.5\MSVC2013_64\LIB\CMAKE\QT5NETWORK\QT5NETWORK_QGENERICENGINEPLUGIN.CMAKE
C:\QT\5.5\MSVC2013_64\LIB\CMAKE\QT5NETWORK\QT5NETWORK_QNATIVEWIFIENGINEPLUGIN.CMAKE
C:\QT\5.5\MSVC2013_64\LIB\CMAKE\QT5WIDGETS\QT5WIDGETSCONFIGVERSION.CMAKE
C:\QT\5.5\MSVC2013_64\LIB\CMAKE\QT5WIDGETS\QT5WIDGETSCONFIG.CMAKE
C:\QT\5.5\MSVC2013_64\LIB\CMAKE\QT5WIDGETS\QT5WIDGETSCONFIGEXTRAS.CMAKE
C:\QT\5.5\MSVC2013_64\LIB\CMAKE\QT5WIDGETS\QT5WIDGETSMACROS.CMAKE
C:\QT\5.5\MSVC2013_64\LIB\CMAKE\QT5PRINTSUPPORT\QT5PRINTSUPPORTCONFIGVERSION.CMAKE
C:\QT\5.5\MSVC2013_64\LIB\CMAKE\QT5PRINTSUPPORT\QT5PRINTSUPPORTCONFIG.CMAKE
C:\QT\5.5\MSVC2013_64\LIB\CMAKE\QT5PRINTSUPPORT\QT5PRINTSUPPORT_QWINDOWSPRINTERSUPPORTPLUGIN.CMAKE
C:\QT\5.5\MSVC2013_64\LIB\CMAKE\QT5WEBKIT\QT5WEBKITCONFIGVERSION.CMAKE
C:\QT\5.5\MSVC2013_64\LIB\CMAKE\QT5WEBKIT\QT5WEBKITCONFIG.CMAKE
C:\QT\5.5\MSVC2013_64\LIB\CMAKE\QT5WEBKITWIDGETS\QT5WEBKITWIDGETSCONFIGVERSION.CMAKE
C:\QT\5.5\MSVC2013_64\LIB\CMAKE\QT5WEBKITWIDGETS\QT5WEBKITWIDGETSCONFIG.CMAKE
C:\QT\5.5\MSVC2013_64\LIB\CMAKE\QT5OPENGL\QT5OPENGLCONFIGVERSION.CMAKE
C:\QT\5.5\MSVC2013_64\LIB\CMAKE\QT5OPENGL\QT5OPENGLCONFIG.CMAKE
C:\QT\5.5\MSVC2013_64\LIB\CMAKE\QT5LINGUISTTOOLS\QT5LINGUISTTOOLSCONFIGVERSION.CMAKE
C:\QT\5.5\MSVC2013_64\LIB\CMAKE\QT5LINGUISTTOOLS\QT5LINGUISTTOOLSCONFIG.CMAKE
C:\QT\5.5\MSVC2013_64\LIB\CMAKE\QT5LINGUISTTOOLS\QT5LINGUISTTOOLSMACROS.CMAKE
C:\QT\5.5\MSVC2013_64\LIB\CMAKE\QT5SCRIPT\QT5SCRIPTCONFIGVERSION.CMAKE
C:\QT\5.5\MSVC2013_64\LIB\CMAKE\QT5SCRIPT\QT5SCRIPTCONFIG.CMAKE
C:\USERS\SIMON\DOCUMENTS\3DIMVIEWERVS2013\CMAKEMODULES\FINDOUROSG.CMAKE
C:\USERS\SIMON\DOCUMENTS\3DIMVIEWERVS2013\CMAKEMODULES\FINDVPL.CMAKE
C:\USERS\SIMON\DOCUMENTS\3DIMVIEWERVS2013\CMAKEMODULES\FINDEIGEN3.CMAKE
C:\USERS\SIMON\DOCUMENTS\3DIMVIEWERVS2013\CMAKEMODULES\FINDOURDCMTK.CMAKE
C:\PROGRAM FILES\CMAKE\SHARE\CMAKE-3.7\MODULES\FINDPACKAGEHANDLESTANDARDARGS.CMAKE
C:\PROGRAM FILES\CMAKE\SHARE\CMAKE-3.7\MODULES\FINDPACKAGEMESSAGE.CMAKE
C:\USERS\SIMON\DOCUMENTS\3DIMVIEWERVS2013\CMAKEMODULES\FINDOURGLEW.CMAKE
C:\USERS\SIMON\DOCUMENTS\3DIMVIEWERVS2013\CMAKEMODULES\FINDOUROPENSSL.CMAKE
C:\USERS\SIMON\DOCUMENTS\3DIMVIEWERVS2013\CMAKEMODULES\FINDOUROPENMESH.CMAKE
C:\USERS\SIMON\DOCUMENTS\3DIMVIEWERVS2013\CMAKEMODULES\FINDICONV.CMAKE
C:\PROGRAM FILES\CMAKE\SHARE\CMAKE-3.7\MODULES\CHECKCCOMPILERFLAG.CMAKE
C:\PROGRAM FILES\CMAKE\SHARE\CMAKE-3.7\MODULES\CHECKCSOURCECOMPILES.CMAKE
C:\PROGRAM FILES\CMAKE\SHARE\CMAKE-3.7\MODULES\CMAKECHECKCOMPILERFLAGCOMMONPATTERNS.CMAKE
C:\USERS\SIMON\DOCUMENTS\3DIMVIEWERVS2013\CMAKEMODULES\FINDOURZLIB.CMAKE
C:\USERS\SIMON\DOCUMENTS\3DIMVIEWERVS2013\APPLICATIONS\3DIMVIEWER\RESOURCES.QRC
C:\USERS\SIMON\DOCUMENTS\3DIMVIEWERVS2013\SRC\CMAKELISTS.3DIMCORE
C:\USERS\SIMON\DOCUMENTS\3DIMVIEWERVS2013\SRC\CMAKELISTS.3DIMCOREMEDI
C:\USERS\SIMON\DOCUMENTS\3DIMVIEWERVS2013\SRC\CMAKELISTS.3DIMGEOMETRY
C:\USERS\SIMON\DOCUMENTS\3DIMVIEWERVS2013\SRC\CMAKELISTS.3DIMGRAPH
C:\USERS\SIMON\DOCUMENTS\3DIMVIEWERVS2013\SRC\CMAKELISTS.3DIMGRAPHMEDI
C:\USERS\SIMON\DOCUMENTS\3DIMVIEWERVS2013\SRC\CMAKELISTS.3DIMGUIQT
C:\USERS\SIMON\DOCUMENTS\3DIMVIEWERVS2013\SRC\CMAKELISTS.3DIMGUIQTMEDI
C:\USERS\SIMON\DOCUMENTS\3DIMVIEWERVS2013\PLUGINS\CMAKELISTS.GAUGE
C:\USERS\SIMON\DOCUMENTS\3DIMVIEWERVS2013\PLUGINS\GAUGE\GAUGE.QRC
C:\USERS\SIMON\DOCUMENTS\3DIMVIEWERVS2013\PLUGINS\CMAKELISTS.DEMO
C:\USERS\SIMON\DOCUMENTS\3DIMVIEWERVS2013\PLUGINS\DEMO\DEMOPLUGIN.QRC
C:\USERS\SIMON\DOCUMENTS\3DIMVIEWERVS2013\PLUGINS\CMAKELISTS.BINARISATION
C:\USERS\SIMON\DOCUMENTS\3DIMVIEWERVS2013\PLUGINS\BINARISATION\BINARISATION.QRC
C:\USERS\SIMON\DOCUMENTS\3DIMVIEWERVS2013\PLUGINS\CMAKELISTS.SEGMENTATION
C:\ITK\ITKCONFIGVERSION.CMAKE
C:\ITK\ITKCONFIG.CMAKE
C:\ITK\ITKTARGETS.CMAKE
C:\INSIGHTTOOLKIT-4.11.0\CMAKE\ITKMODULEAPI.CMAKE
C:\ITK\LIB\CMAKE\ITK-4.11\MODULES\ITKANISOTROPICSMOOTHING.CMAKE
C:\ITK\LIB\CMAKE\ITK-4.11\MODULES\ITKCURVATUREFLOW.CMAKE
C:\ITK\LIB\CMAKE\ITK-4.11\MODULES\ITKFINITEDIFFERENCE.CMAKE
C:\ITK\LIB\CMAKE\ITK-4.11\MODULES\ITKCOMMON.CMAKE
C:\ITK\LIB\CMAKE\ITK-4.11\MODULES\ITKKWIML.CMAKE
C:\ITK\LIB\CMAKE\ITK-4.11\MODULES\ITKKWSYS.CMAKE
C:\ITK\LIB\CMAKE\ITK-4.11\MODULES\ITKVNLINSTANTIATION.CMAKE
C:\ITK\LIB\CMAKE\ITK-4.11\MODULES\ITKVNL.CMAKE
C:\ITK\LIB\CMAKE\ITK-4.11\MODULES\ITKIMAGEFILTERBASE.CMAKE
C:\ITK\LIB\CMAKE\ITK-4.11\MODULES\ITKIMAGEGRID.CMAKE
C:\ITK\LIB\CMAKE\ITK-4.11\MODULES\ITKIMAGEFUNCTION.CMAKE
C:\ITK\LIB\CMAKE\ITK-4.11\MODULES\ITKIMAGEADAPTORS.CMAKE
C:\ITK\LIB\CMAKE\ITK-4.11\MODULES\ITKSTATISTICS.CMAKE
C:\ITK\LIB\CMAKE\ITK-4.11\MODULES\ITKNETLIB.CMAKE
C:\ITK\LIB\CMAKE\ITK-4.11\MODULES\ITKTRANSFORM.CMAKE
C:\ITK\LIB\CMAKE\ITK-4.11\MODULES\ITKANTIALIAS.CMAKE
C:\ITK\LIB\CMAKE\ITK-4.11\MODULES\ITKLEVELSETS.CMAKE
C:\ITK\LIB\CMAKE\ITK-4.11\MODULES\ITKDISTANCEMAP.CMAKE
C:\ITK\LIB\CMAKE\ITK-4.11\MODULES\ITKBINARYMATHEMATICALMORPHOLOGY.CMAKE
C:\ITK\LIB\CMAKE\ITK-4.11\MODULES\ITKLABELMAP.CMAKE
C:\ITK\LIB\CMAKE\ITK-4.11\MODULES\ITKMATHEMATICALMORPHOLOGY.CMAKE
C:\ITK\LIB\CMAKE\ITK-4.11\MODULES\ITKCONNECTEDCOMPONENTS.CMAKE
C:\ITK\LIB\CMAKE\ITK-4.11\MODULES\ITKIMAGEINTENSITY.CMAKE
C:\ITK\LIB\CMAKE\ITK-4.11\MODULES\ITKIMAGESTATISTICS.CMAKE
C:\ITK\LIB\CMAKE\ITK-4.11\MODULES\ITKIMAGECOMPOSE.CMAKE
C:\ITK\LIB\CMAKE\ITK-4.11\MODULES\ITKSPATIALOBJECTS.CMAKE
C:\ITK\LIB\CMAKE\ITK-4.11\MODULES\ITKMETAIO.CMAKE
C:\ITK\LIB\CMAKE\ITK-4.11\MODULES\ITKZLIB.CMAKE
C:\ITK\LIB\CMAKE\ITK-4.11\MODULES\ITKPATH.CMAKE
C:\ITK\LIB\CMAKE\ITK-4.11\MODULES\ITKTHRESHOLDING.CMAKE
C:\ITK\LIB\CMAKE\ITK-4.11\MODULES\ITKIMAGELABEL.CMAKE
C:\ITK\LIB\CMAKE\ITK-4.11\MODULES\ITKNARROWBAND.CMAKE
C:\ITK\LIB\CMAKE\ITK-4.11\MODULES\ITKFASTMARCHING.CMAKE
C:\ITK\LIB\CMAKE\ITK-4.11\MODULES\ITKMESH.CMAKE
C:\ITK\LIB\CMAKE\ITK-4.11\MODULES\ITKQUADEDGEMESH.CMAKE
C:\ITK\LIB\CMAKE\ITK-4.11\MODULES\ITKIOIMAGEBASE.CMAKE
C:\ITK\LIB\CMAKE\ITK-4.11\MODULES\ITKIMAGECOMPARE.CMAKE
C:\ITK\LIB\CMAKE\ITK-4.11\MODULES\ITKIMAGEFEATURE.CMAKE
C:\ITK\LIB\CMAKE\ITK-4.11\MODULES\ITKIMAGEGRADIENT.CMAKE
C:\ITK\LIB\CMAKE\ITK-4.11\MODULES\ITKSMOOTHING.CMAKE
C:\ITK\LIB\CMAKE\ITK-4.11\MODULES\ITKIMAGESOURCES.CMAKE
C:\ITK\LIB\CMAKE\ITK-4.11\MODULES\ITKOPTIMIZERS.CMAKE
C:\ITK\LIB\CMAKE\ITK-4.11\MODULES\ITKSIGNEDDISTANCEFUNCTION.CMAKE
C:\ITK\LIB\CMAKE\ITK-4.11\MODULES\ITKBIASCORRECTION.CMAKE
C:\ITK\LIB\CMAKE\ITK-4.11\MODULES\ITKPOLYNOMIALS.CMAKE
C:\ITK\LIB\CMAKE\ITK-4.11\MODULES\ITKBIOCELL.CMAKE
C:\ITK\LIB\CMAKE\ITK-4.11\MODULES\ITKCLASSIFIERS.CMAKE
C:\ITK\LIB\CMAKE\ITK-4.11\MODULES\ITKCOLORMAP.CMAKE
C:\ITK\LIB\CMAKE\ITK-4.11\MODULES\ITKCONVOLUTION.CMAKE
C:\ITK\LIB\CMAKE\ITK-4.11\MODULES\ITKFFT.CMAKE
C:\ITK\LIB\CMAKE\ITK-4.11\MODULES\ITKDICOMPARSER.CMAKE
C:\ITK\LIB\CMAKE\ITK-4.11\MODULES\ITKDECONVOLUTION.CMAKE
C:\ITK\LIB\CMAKE\ITK-4.11\MODULES\ITKDEFORMABLEMESH.CMAKE
C:\ITK\LIB\CMAKE\ITK-4.11\MODULES\ITKDENOISING.CMAKE
C:\ITK\LIB\CMAKE\ITK-4.11\MODULES\ITKDIFFUSIONTENSORIMAGE.CMAKE
C:\ITK\LIB\CMAKE\ITK-4.11\MODULES\ITKDISPLACEMENTFIELD.CMAKE
C:\ITK\LIB\CMAKE\ITK-4.11\MODULES\ITKDOUBLECONVERSION.CMAKE
C:\ITK\LIB\CMAKE\ITK-4.11\MODULES\ITKEIGEN.CMAKE
C:\ITK\LIB\CMAKE\ITK-4.11\MODULES\ITKEXPAT.CMAKE
C:\ITK\LIB\CMAKE\ITK-4.11\MODULES\ITKFEM.CMAKE
C:\ITK\LIB\CMAKE\ITK-4.11\MODULES\ITKIOSPATIALOBJECTS.CMAKE
C:\ITK\LIB\CMAKE\ITK-4.11\MODULES\ITKREGISTRATIONCOMMON.CMAKE
C:\ITK\LIB\CMAKE\ITK-4.11\MODULES\ITKFEMREGISTRATION.CMAKE
C:\ITK\LIB\CMAKE\ITK-4.11\MODULES\ITKPDEDEFORMABLEREGISTRATION.CMAKE
C:\ITK\LIB\CMAKE\ITK-4.11\MODULES\ITKGDCM.CMAKE
C:\ITK\LIB\CMAKE\ITK-4.11\MODULES\ITKGIFTI.CMAKE
C:\ITK\LIB\CMAKE\ITK-4.11\MODULES\ITKNIFTI.CMAKE
C:\ITK\LIB\CMAKE\ITK-4.11\MODULES\ITKGPUANISOTROPICSMOOTHING.CMAKE
C:\ITK\LIB\CMAKE\ITK-4.11\MODULES\ITKGPUCOMMON.CMAKE
C:\ITK\LIB\CMAKE\ITK-4.11\MODULES\ITKGPUFINITEDIFFERENCE.CMAKE
C:\ITK\LIB\CMAKE\ITK-4.11\MODULES\ITKGPUIMAGEFILTERBASE.CMAKE
C:\ITK\LIB\CMAKE\ITK-4.11\MODULES\ITKGPUPDEDEFORMABLEREGISTRATION.CMAKE
C:\ITK\LIB\CMAKE\ITK-4.11\MODULES\ITKGPUREGISTRATIONCOMMON.CMAKE
C:\ITK\LIB\CMAKE\ITK-4.11\MODULES\ITKGPUSMOOTHING.CMAKE
C:\ITK\LIB\CMAKE\ITK-4.11\MODULES\ITKGPUTHRESHOLDING.CMAKE
C:\ITK\LIB\CMAKE\ITK-4.11\MODULES\ITKHDF5.CMAKE
C:\ITK\LIB\CMAKE\ITK-4.11\MODULES\ITKIOBMP.CMAKE
C:\ITK\LIB\CMAKE\ITK-4.11\MODULES\ITKIOBIORAD.CMAKE
C:\ITK\LIB\CMAKE\ITK-4.11\MODULES\ITKIOCSV.CMAKE
C:\ITK\LIB\CMAKE\ITK-4.11\MODULES\ITKIOGDCM.CMAKE
C:\ITK\LIB\CMAKE\ITK-4.11\MODULES\ITKIOGE.CMAKE
C:\ITK\LIB\CMAKE\ITK-4.11\MODULES\ITKIOGIPL.CMAKE
C:\ITK\LIB\CMAKE\ITK-4.11\MODULES\ITKIOHDF5.CMAKE
C:\ITK\LIB\CMAKE\ITK-4.11\MODULES\ITKIOIPL.CMAKE
C:\ITK\LIB\CMAKE\ITK-4.11\MODULES\ITKIOJPEG.CMAKE
C:\ITK\LIB\CMAKE\ITK-4.11\MODULES\ITKIOLSM.CMAKE
C:\ITK\LIB\CMAKE\ITK-4.11\MODULES\ITKIOMRC.CMAKE
C:\ITK\LIB\CMAKE\ITK-4.11\MODULES\ITKIOMESH.CMAKE
C:\ITK\LIB\CMAKE\ITK-4.11\MODULES\ITKIOMETA.CMAKE
C:\ITK\LIB\CMAKE\ITK-4.11\MODULES\ITKIONIFTI.CMAKE
C:\ITK\LIB\CMAKE\ITK-4.11\MODULES\ITKIONRRD.CMAKE
C:\ITK\LIB\CMAKE\ITK-4.11\MODULES\ITKIOPNG.CMAKE
C:\ITK\LIB\CMAKE\ITK-4.11\MODULES\ITKIORAW.CMAKE
C:\ITK\LIB\CMAKE\ITK-4.11\MODULES\ITKIOSIEMENS.CMAKE
C:\ITK\LIB\CMAKE\ITK-4.11\MODULES\ITKIOSTIMULATE.CMAKE
C:\ITK\LIB\CMAKE\ITK-4.11\MODULES\ITKIOTIFF.CMAKE
C:\ITK\LIB\CMAKE\ITK-4.11\MODULES\ITKIOTRANSFORMBASE.CMAKE
C:\ITK\LIB\CMAKE\ITK-4.11\MODULES\ITKTRANSFORMFACTORY.CMAKE
C:\ITK\LIB\CMAKE\ITK-4.11\MODULES\ITKIOTRANSFORMHDF5.CMAKE
C:\ITK\LIB\CMAKE\ITK-4.11\MODULES\ITKIOTRANSFORMINSIGHTLEGACY.CMAKE
C:\ITK\LIB\CMAKE\ITK-4.11\MODULES\ITKIOTRANSFORMMATLAB.CMAKE
C:\ITK\LIB\CMAKE\ITK-4.11\MODULES\ITKIOVTK.CMAKE
C:\ITK\LIB\CMAKE\ITK-4.11\MODULES\ITKIOXML.CMAKE
C:\ITK\LIB\CMAKE\ITK-4.11\MODULES\ITKIMAGEFUSION.CMAKE
C:\ITK\LIB\CMAKE\ITK-4.11\MODULES\ITKIMAGENOISE.CMAKE
C:\ITK\LIB\CMAKE\ITK-4.11\MODULES\ITKINTEGRATEDTEST.CMAKE
C:\ITK\LIB\CMAKE\ITK-4.11\MODULES\ITKJPEG.CMAKE
C:\ITK\LIB\CMAKE\ITK-4.11\MODULES\ITKKLMREGIONGROWING.CMAKE
C:\ITK\LIB\CMAKE\ITK-4.11\MODULES\ITKLABELVOTING.CMAKE
C:\ITK\LIB\CMAKE\ITK-4.11\MODULES\ITKLEVELSETSV4.CMAKE
C:\ITK\LIB\CMAKE\ITK-4.11\MODULES\ITKMARKOVRANDOMFIELDSCLASSIFIERS.CMAKE
C:\ITK\LIB\CMAKE\ITK-4.11\MODULES\ITKMETRICSV4.CMAKE
C:\ITK\LIB\CMAKE\ITK-4.11\MODULES\ITKOPTIMIZERSV4.CMAKE
C:\ITK\LIB\CMAKE\ITK-4.11\MODULES\ITKNEURALNETWORKS.CMAKE
C:\ITK\LIB\CMAKE\ITK-4.11\MODULES\ITKNRRDIO.CMAKE
C:\ITK\LIB\CMAKE\ITK-4.11\MODULES\ITKPNG.CMAKE
C:\ITK\LIB\CMAKE\ITK-4.11\MODULES\ITKQUADEDGEMESHFILTERING.CMAKE
C:\ITK\LIB\CMAKE\ITK-4.11\MODULES\ITKREGIONGROWING.CMAKE
C:\ITK\LIB\CMAKE\ITK-4.11\MODULES\ITKREGISTRATIONMETHODSV4.CMAKE
C:\ITK\LIB\CMAKE\ITK-4.11\MODULES\ITKSPATIALFUNCTION.CMAKE
C:\ITK\LIB\CMAKE\ITK-4.11\MODULES\ITKTIFF.CMAKE
C:\ITK\LIB\CMAKE\ITK-4.11\MODULES\ITKTESTKERNEL.CMAKE
C:\ITK\LIB\CMAKE\ITK-4.11\MODULES\ITKVTK.CMAKE
C:\ITK\LIB\CMAKE\ITK-4.11\MODULES\ITKVIDEOCORE.CMAKE
C:\ITK\LIB\CMAKE\ITK-4.11\MODULES\ITKVIDEOFILTERING.CMAKE
C:\ITK\LIB\CMAKE\ITK-4.11\MODULES\ITKVIDEOIO.CMAKE
C:\ITK\LIB\CMAKE\ITK-4.11\MODULES\ITKVORONOI.CMAKE
C:\ITK\LIB\CMAKE\ITK-4.11\MODULES\ITKWATERSHEDS.CMAKE
C:\INSIGHTTOOLKIT-4.11.0\CMAKE\USEITK.CMAKE
C:\INSIGHTTOOLKIT-4.11.0\CMAKE\ITKIMAGEIOFACTORYREGISTERMANAGER.H.IN
C:\INSIGHTTOOLKIT-4.11.0\CMAKE\ITKTRANSFORMIOFACTORYREGISTERMANAGER.H.IN
C:\USERS\SIMON\DOCUMENTS\3DIMVIEWERVS2013\PLUGINS\SEGMENTATION\SEGMENTATION.QRC
