^C:\Users\Simon\Documents\3DimViewerVS2013\build\3DimViewer\BinarisationPlugin.vcxproj
C:\Users\Simon\Documents\3DimViewerVS2013\build\3DimViewer\Release\BinarisationPlugin.lib
C:\Users\Simon\Documents\3DimViewerVS2013\build\3DimViewer\Release\BinarisationPlugin.exp
^C:\Users\Simon\Documents\3DimViewerVS2013\build\3DimViewer\BinarisationPlugin.vcxproj
C:\Users\Simon\Documents\3DimViewerVS2013\build\3DimViewer\Release\BinarisationPlugin.lib
C:\Users\Simon\Documents\3DimViewerVS2013\build\3DimViewer\Release\BinarisationPlugin.exp
^C:\Users\Simon\Documents\3DimViewerVS2013\build\3DimViewer\BinarisationPlugin.vcxproj
C:\Users\Simon\Documents\3DimViewerVS2013\build\3DimViewer\Release\BinarisationPlugin.lib
C:\Users\Simon\Documents\3DimViewerVS2013\build\3DimViewer\Release\BinarisationPlugin.exp
^C:\Users\Simon\Documents\3DimViewerVS2013\build\3DimViewer\BinarisationPlugin.vcxproj
C:\Users\Simon\Documents\3DimViewerVS2013\build\3DimViewer\Release\BinarisationPlugin.lib
C:\Users\Simon\Documents\3DimViewerVS2013\build\3DimViewer\Release\BinarisationPlugin.exp
^C:\Users\Simon\Documents\3DimViewerVS2013\build\3DimViewer\BinarisationPlugin.vcxproj
C:\Users\Simon\Documents\3DimViewerVS2013\build\3DimViewer\Release\BinarisationPlugin.lib
C:\Users\Simon\Documents\3DimViewerVS2013\build\3DimViewer\Release\BinarisationPlugin.exp
^C:\Users\Simon\Documents\3DimViewerVS2013\build\3DimViewer\BinarisationPlugin.vcxproj
C:\Users\Simon\Documents\3DimViewerVS2013\build\3DimViewer\Release\BinarisationPlugin.lib
C:\Users\Simon\Documents\3DimViewerVS2013\build\3DimViewer\Release\BinarisationPlugin.exp
