^C:\USERS\SIMON\DOCUMENTS\3DIMVIEWERVS2013\BUILD\3DIMVIEWER\3DIMGRAPHMEDI.DIR\RELEASE\CCOMMANDEVENTHANDLER.OBJ|C:\USERS\SIMON\DOCUMENTS\3DIMVIEWERVS2013\BUILD\3DIMVIEWER\3DIMGRAPHMEDI.DIR\RELEASE\CDENSITYWINDOWEVENTHANDLER.OBJ|C:\USERS\SIMON\DOCUMENTS\3DIMVIEWERVS2013\BUILD\3DIMVIEWER\3DIMGRAPHMEDI.DIR\RELEASE\CDRAGGABLESLICE.OBJ|C:\USERS\SIMON\DOCUMENTS\3DIMVIEWERVS2013\BUILD\3DIMVIEWER\3DIMGRAPHMEDI.DIR\RELEASE\CDRAGGEREVENTHANDLER.OBJ|C:\USERS\SIMON\DOCUMENTS\3DIMVIEWERVS2013\BUILD\3DIMVIEWER\3DIMGRAPHMEDI.DIR\RELEASE\CGRAFICCARDDESC.OBJ|C:\USERS\SIMON\DOCUMENTS\3DIMVIEWERVS2013\BUILD\3DIMVIEWER\3DIMGRAPHMEDI.DIR\RELEASE\CISEVENTHANDLER.OBJ|C:\USERS\SIMON\DOCUMENTS\3DIMVIEWERVS2013\BUILD\3DIMVIEWER\3DIMGRAPHMEDI.DIR\RELEASE\CLIMITERSCENEOSG.OBJ|C:\USERS\SIMON\DOCUMENTS\3DIMVIEWERVS2013\BUILD\3DIMVIEWER\3DIMGRAPHMEDI.DIR\RELEASE\CLINEOPTIMIZER.OBJ|C:\USERS\SIMON\DOCUMENTS\3DIMVIEWERVS2013\BUILD\3DIMVIEWER\3DIMGRAPHMEDI.DIR\RELEASE\CLOOKUPTABLE.OBJ|C:\USERS\SIMON\DOCUMENTS\3DIMVIEWERVS2013\BUILD\3DIMVIEWER\3DIMGRAPHMEDI.DIR\RELEASE\CMEASUREMENTSEH.OBJ|C:\USERS\SIMON\DOCUMENTS\3DIMVIEWERVS2013\BUILD\3DIMVIEWER\3DIMGRAPHMEDI.DIR\RELEASE\CMODELCUTVISUALIZER.OBJ|C:\USERS\SIMON\DOCUMENTS\3DIMVIEWERVS2013\BUILD\3DIMVIEWER\3DIMGRAPHMEDI.DIR\RELEASE\CORTHOSCENEOSG.OBJ|C:\USERS\SIMON\DOCUMENTS\3DIMVIEWERVS2013\BUILD\3DIMVIEWER\3DIMGRAPHMEDI.DIR\RELEASE\CSCENEMANIPULATOR.OBJ|C:\USERS\SIMON\DOCUMENTS\3DIMVIEWERVS2013\BUILD\3DIMVIEWER\3DIMGRAPHMEDI.DIR\RELEASE\CSCENEOSG.OBJ|C:\USERS\SIMON\DOCUMENTS\3DIMVIEWERVS2013\BUILD\3DIMVIEWER\3DIMGRAPHMEDI.DIR\RELEASE\CSCENEVOLUMERENDERING.OBJ|C:\USERS\SIMON\DOCUMENTS\3DIMVIEWERVS2013\BUILD\3DIMVIEWER\3DIMGRAPHMEDI.DIR\RELEASE\CSCENEWIDGET.OBJ|C:\USERS\SIMON\DOCUMENTS\3DIMVIEWERVS2013\BUILD\3DIMVIEWER\3DIMGRAPHMEDI.DIR\RELEASE\CSLICEDRAGGER.OBJ|C:\USERS\SIMON\DOCUMENTS\3DIMVIEWERVS2013\BUILD\3DIMVIEWER\3DIMGRAPHMEDI.DIR\RELEASE\CWIDGETOVERLAYNODE.OBJ|C:\USERS\SIMON\DOCUMENTS\3DIMVIEWERVS2013\BUILD\3DIMVIEWER\3DIMGRAPHMEDI.DIR\RELEASE\ORTHOMANIPULATOR.OBJ|C:\USERS\SIMON\DOCUMENTS\3DIMVIEWERVS2013\BUILD\3DIMVIEWER\3DIMGRAPHMEDI.DIR\RELEASE\PSVROSG.OBJ|C:\USERS\SIMON\DOCUMENTS\3DIMVIEWERVS2013\BUILD\3DIMVIEWER\3DIMGRAPHMEDI.DIR\RELEASE\PSVRRENDERER.OBJ|C:\USERS\SIMON\DOCUMENTS\3DIMVIEWERVS2013\BUILD\3DIMVIEWER\3DIMGRAPHMEDI.DIR\RELEASE\SCENEDRAW.OBJ|C:\USERS\SIMON\DOCUMENTS\3DIMVIEWERVS2013\BUILD\3DIMVIEWER\3DIMGRAPHMEDI.DIR\RELEASE\WIDGETS.OBJ
C:\WINDOWS\SYSTEM32\TZRES.DLL
C:\USERS\SIMON\DOCUMENTS\3DIMVIEWERVS2013\BUILD\3DIMVIEWER\3DIMGRAPHMEDI.DIR\RELEASE\CISEVENTHANDLER.OBJ
C:\USERS\SIMON\DOCUMENTS\3DIMVIEWERVS2013\BUILD\3DIMVIEWER\3DIMGRAPHMEDI.DIR\RELEASE\CLINEOPTIMIZER.OBJ
C:\USERS\SIMON\DOCUMENTS\3DIMVIEWERVS2013\BUILD\3DIMVIEWER\3DIMGRAPHMEDI.DIR\RELEASE\CCOMMANDEVENTHANDLER.OBJ
C:\USERS\SIMON\DOCUMENTS\3DIMVIEWERVS2013\BUILD\3DIMVIEWER\3DIMGRAPHMEDI.DIR\RELEASE\CDENSITYWINDOWEVENTHANDLER.OBJ
C:\USERS\SIMON\DOCUMENTS\3DIMVIEWERVS2013\BUILD\3DIMVIEWER\3DIMGRAPHMEDI.DIR\RELEASE\CLIMITERSCENEOSG.OBJ
C:\USERS\SIMON\DOCUMENTS\3DIMVIEWERVS2013\BUILD\3DIMVIEWER\3DIMGRAPHMEDI.DIR\RELEASE\CMEASUREMENTSEH.OBJ
C:\USERS\SIMON\DOCUMENTS\3DIMVIEWERVS2013\BUILD\3DIMVIEWER\3DIMGRAPHMEDI.DIR\RELEASE\CMODELCUTVISUALIZER.OBJ
C:\USERS\SIMON\DOCUMENTS\3DIMVIEWERVS2013\BUILD\3DIMVIEWER\3DIMGRAPHMEDI.DIR\RELEASE\CORTHOSCENEOSG.OBJ
C:\USERS\SIMON\DOCUMENTS\3DIMVIEWERVS2013\BUILD\3DIMVIEWER\3DIMGRAPHMEDI.DIR\RELEASE\CSLICEDRAGGER.OBJ
C:\USERS\SIMON\DOCUMENTS\3DIMVIEWERVS2013\BUILD\3DIMVIEWER\3DIMGRAPHMEDI.DIR\RELEASE\SCENEDRAW.OBJ
C:\USERS\SIMON\DOCUMENTS\3DIMVIEWERVS2013\BUILD\3DIMVIEWER\3DIMGRAPHMEDI.DIR\RELEASE\CGRAFICCARDDESC.OBJ
C:\USERS\SIMON\DOCUMENTS\3DIMVIEWERVS2013\BUILD\3DIMVIEWER\3DIMGRAPHMEDI.DIR\RELEASE\CLOOKUPTABLE.OBJ
C:\USERS\SIMON\DOCUMENTS\3DIMVIEWERVS2013\BUILD\3DIMVIEWER\3DIMGRAPHMEDI.DIR\RELEASE\CSCENEVOLUMERENDERING.OBJ
C:\USERS\SIMON\DOCUMENTS\3DIMVIEWERVS2013\BUILD\3DIMVIEWER\3DIMGRAPHMEDI.DIR\RELEASE\CSCENEWIDGET.OBJ
C:\USERS\SIMON\DOCUMENTS\3DIMVIEWERVS2013\BUILD\3DIMVIEWER\3DIMGRAPHMEDI.DIR\RELEASE\CWIDGETOVERLAYNODE.OBJ
C:\USERS\SIMON\DOCUMENTS\3DIMVIEWERVS2013\BUILD\3DIMVIEWER\3DIMGRAPHMEDI.DIR\RELEASE\CDRAGGABLESLICE.OBJ
C:\USERS\SIMON\DOCUMENTS\3DIMVIEWERVS2013\BUILD\3DIMVIEWER\3DIMGRAPHMEDI.DIR\RELEASE\CDRAGGEREVENTHANDLER.OBJ
C:\USERS\SIMON\DOCUMENTS\3DIMVIEWERVS2013\BUILD\3DIMVIEWER\3DIMGRAPHMEDI.DIR\RELEASE\CSCENEMANIPULATOR.OBJ
C:\USERS\SIMON\DOCUMENTS\3DIMVIEWERVS2013\BUILD\3DIMVIEWER\3DIMGRAPHMEDI.DIR\RELEASE\CSCENEOSG.OBJ
C:\USERS\SIMON\DOCUMENTS\3DIMVIEWERVS2013\BUILD\3DIMVIEWER\3DIMGRAPHMEDI.DIR\RELEASE\ORTHOMANIPULATOR.OBJ
C:\USERS\SIMON\DOCUMENTS\3DIMVIEWERVS2013\BUILD\3DIMVIEWER\3DIMGRAPHMEDI.DIR\RELEASE\PSVROSG.OBJ
C:\USERS\SIMON\DOCUMENTS\3DIMVIEWERVS2013\BUILD\3DIMVIEWER\3DIMGRAPHMEDI.DIR\RELEASE\PSVRRENDERER.OBJ
C:\USERS\SIMON\DOCUMENTS\3DIMVIEWERVS2013\BUILD\3DIMVIEWER\3DIMGRAPHMEDI.DIR\RELEASE\WIDGETS.OBJ
C:\WINDOWS\GLOBALIZATION\SORTING\SORTDEFAULT.NLS
